[gd_scene load_steps=5 format=2]

[ext_resource path="res://Scenes/Actors/ToMop.tscn" type="PackedScene" id=1]
[ext_resource path="res://Graphics/Tasks/mud_1.png" type="Texture" id=2]
[ext_resource path="res://Graphics/Tasks/stain_outline.png" type="Texture" id=3]

[sub_resource type="CapsuleShape2D" id=1]
radius = 14.0
height = 57.0

[node name="Mud1" instance=ExtResource( 1 )]

[node name="CollisionShape2D" parent="StaticBody2D" index="0"]
rotation = 1.91986
shape = SubResource( 1 )

[node name="Outline" parent="." index="2"]
scale = Vector2( 0.75, 0.75 )
texture = ExtResource( 3 )

[node name="Sprite" parent="." index="3"]
texture = ExtResource( 2 )
offset = Vector2( 0, 0 )

[node name="FX" parent="." index="4"]
_FX_SIZE = 1
