[gd_scene load_steps=3 format=2]

[ext_resource path="res://Scenes/Actors/Decoration.tscn" type="PackedScene" id=1]
[ext_resource path="res://Graphics/Decor/Objects/Salon/obj_meuble_2_dos.png" type="Texture" id=2]

[node name="SideboardPlus_B" instance=ExtResource( 1 )]

[node name="Sprite" parent="." index="0"]
texture = ExtResource( 2 )
offset = Vector2( 22, -44 )
