[gd_scene load_steps=3 format=2]

[ext_resource path="res://Scenes/Actors/StaticObject.tscn" type="PackedScene" id=1]
[ext_resource path="res://Graphics/Decor/Objects/Cuisine/obj_lave-linge.png" type="Texture" id=2]

[node name="WashingMachine" instance=ExtResource( 1 )]

[node name="Sprite" parent="." index="0"]
texture = ExtResource( 2 )
offset = Vector2( 16, -40 )

[node name="CollisionPolygon2D" parent="." index="1"]
polygon = PoolVector2Array( -48, -8, 0, -32, 64, 0, 16, 24 )
