[gd_resource type="Resource" load_steps=3 format=2]

[ext_resource path="res://Scripts/LevelConfiguration.cs" type="Script" id=1]
[ext_resource path="res://Scenes/Levels/Level_8.tscn" type="PackedScene" id=2]

[resource]
script = ExtResource( 1 )
_GameMode = 1
_TimerDuration = 45.0
_Scene = ExtResource( 2 )
