[gd_scene load_steps=4 format=2]

[ext_resource path="res://Scenes/Actors/Task.tscn" type="PackedScene" id=1]
[ext_resource path="res://Graphics/Tasks/obj_lit-enfant.png" type="Texture" id=2]
[ext_resource path="res://Graphics/Tasks/obj_lit-enfant_pipi.png" type="Texture" id=3]

[node name="BedChild1" instance=ExtResource( 1 )]
_CleanFrame = ExtResource( 2 )
_TEXT_TO_DISPLAY = "T_BEDC"

[node name="CollisionPolygon2D" parent="StaticBody2D" index="0"]
polygon = PoolVector2Array( -8, 48, 80, 4, -56, -64, -136, -36, -136, -15.0143 )

[node name="Outline" parent="." index="2"]
texture = ExtResource( 3 )
offset = Vector2( 1, -87 )

[node name="Sprite" parent="." index="3"]
texture = ExtResource( 3 )
offset = Vector2( 0, -88 )

[node name="FX" parent="." index="4"]
position = Vector2( -24, -56 )
_FX_SIZE = 1
