[gd_resource type="TileSet" load_steps=77 format=2]

[ext_resource path="res://Graphics/Decor/Walls/mur_wc_1.png" type="Texture" id=1]
[ext_resource path="res://Graphics/Decor/Walls/mur_sdb_2_flip.png" type="Texture" id=2]
[ext_resource path="res://Graphics/Decor/Walls/mur_wc_1_flip.png" type="Texture" id=3]
[ext_resource path="res://Graphics/Decor/Walls/mur_sdb_2.png" type="Texture" id=4]
[ext_resource path="res://Graphics/Decor/Walls/mur_wc_2.png" type="Texture" id=5]
[ext_resource path="res://Graphics/Decor/Walls/mur_salon-cuisine_5_flip.png" type="Texture" id=6]
[ext_resource path="res://Graphics/Decor/Walls/mur_salon-cuisine_6.png" type="Texture" id=7]
[ext_resource path="res://Graphics/Decor/Walls/mur_salon-cuisine_7.png" type="Texture" id=8]
[ext_resource path="res://Graphics/Decor/Walls/mur_salon-cuisine_4_flip.png" type="Texture" id=9]
[ext_resource path="res://Graphics/Decor/Walls/mur_salon-cuisine_5.png" type="Texture" id=10]
[ext_resource path="res://Graphics/Decor/Walls/mur_salon-cuisine_6_flip.png" type="Texture" id=11]
[ext_resource path="res://Graphics/Decor/Walls/mur_salon-cuisine_7_flip.png" type="Texture" id=12]
[ext_resource path="res://Graphics/Decor/Walls/mur_sdb_1.png" type="Texture" id=13]
[ext_resource path="res://Graphics/Decor/Walls/adu_mur_2.png" type="Texture" id=14]
[ext_resource path="res://Graphics/Decor/Walls/enf_mur_2.png" type="Texture" id=15]
[ext_resource path="res://Graphics/Decor/Walls/enf_mur_2_flip.png" type="Texture" id=16]
[ext_resource path="res://Graphics/Decor/Walls/adu_mur_1.png" type="Texture" id=17]
[ext_resource path="res://Graphics/Decor/Walls/enf_mur_1.png" type="Texture" id=18]
[ext_resource path="res://Graphics/Decor/Walls/enf_mur_1_flip.png" type="Texture" id=19]
[ext_resource path="res://Graphics/Decor/Walls/adu_mur_1_flip.png" type="Texture" id=20]
[ext_resource path="res://Graphics/Decor/Walls/adu_mur_2_flip.png" type="Texture" id=21]
[ext_resource path="res://Graphics/Decor/Walls/mur_chambres.png" type="Texture" id=22]
[ext_resource path="res://Graphics/Decor/Walls/mur_chambres_flip.png" type="Texture" id=23]
[ext_resource path="res://Graphics/Decor/Walls/mur_fenetre_1.png" type="Texture" id=24]
[ext_resource path="res://Graphics/Decor/Walls/mur_fenetre_1_flip.png" type="Texture" id=25]
[ext_resource path="res://Graphics/Decor/Walls/mur_fenetre_2.png" type="Texture" id=26]
[ext_resource path="res://Graphics/Decor/Walls/mur_fenetre_2_flip.png" type="Texture" id=27]
[ext_resource path="res://Graphics/Decor/Walls/mur_fenetre_3.png" type="Texture" id=28]
[ext_resource path="res://Graphics/Decor/Walls/mur_fenetre_3_flip.png" type="Texture" id=29]
[ext_resource path="res://Graphics/Decor/Walls/mur_salon-cuisine_1.png" type="Texture" id=30]
[ext_resource path="res://Graphics/Decor/Walls/mur_salon-cuisine_3_flip.png" type="Texture" id=31]
[ext_resource path="res://Graphics/Decor/Walls/mur_salon-cuisine_2_flip.png" type="Texture" id=32]
[ext_resource path="res://Graphics/Decor/Walls/mur_salon-cuisine_4.png" type="Texture" id=33]
[ext_resource path="res://Graphics/Decor/Walls/mur_salon-cuisine_1_flip.png" type="Texture" id=34]
[ext_resource path="res://Graphics/Decor/Walls/mur_salon-cuisine_2.png" type="Texture" id=35]
[ext_resource path="res://Graphics/Decor/Walls/mur_salon-cuisine_3.png" type="Texture" id=36]
[ext_resource path="res://Graphics/Decor/Walls/mur_wc_2_flip.png" type="Texture" id=37]
[ext_resource path="res://Graphics/Decor/Walls/mur_sdb_1_flip.png" type="Texture" id=38]

[sub_resource type="ConvexPolygonShape2D" id=1]
points = PoolVector2Array( 64, 192, 0, 224, 0, 200, 64, 168 )

[sub_resource type="ConvexPolygonShape2D" id=2]
points = PoolVector2Array( 32, 128, -32, 96, -32, 72, 32, 104 )

[sub_resource type="ConvexPolygonShape2D" id=3]
points = PoolVector2Array( 32, 96, -32, 128, -32, 104, 32, 72 )

[sub_resource type="ConvexPolygonShape2D" id=4]
points = PoolVector2Array( 32, 128, -32, 96, -32, 72, 32, 104 )

[sub_resource type="ConvexPolygonShape2D" id=5]
points = PoolVector2Array( 32, 96, -32, 128, -32, 104, 32, 72 )

[sub_resource type="ConvexPolygonShape2D" id=6]
points = PoolVector2Array( 32, 128, -32, 96, -32, 72, 32, 104 )

[sub_resource type="ConvexPolygonShape2D" id=7]
points = PoolVector2Array( 32, 96, -32, 128, -32, 104, 32, 72 )

[sub_resource type="ConvexPolygonShape2D" id=8]
points = PoolVector2Array( 32, 128, -32, 96, -32, 72, 32, 104 )

[sub_resource type="ConvexPolygonShape2D" id=9]
points = PoolVector2Array( 32, 96, -32, 128, -32, 104, 32, 72 )

[sub_resource type="ConvexPolygonShape2D" id=10]
points = PoolVector2Array( 32, 128, -32, 96, -32, 72, 32, 104 )

[sub_resource type="ConvexPolygonShape2D" id=11]
points = PoolVector2Array( 32, 96, -32, 128, -32, 104, 32, 72 )

[sub_resource type="ConvexPolygonShape2D" id=12]
points = PoolVector2Array( 32, 128, -32, 96, -32, 72, 32, 104 )

[sub_resource type="ConvexPolygonShape2D" id=13]
points = PoolVector2Array( 32, 96, -32, 128, -32, 104, 32, 72 )

[sub_resource type="ConvexPolygonShape2D" id=14]
points = PoolVector2Array( 32, 96, -32, 128, -32, 104, 32, 72 )

[sub_resource type="ConvexPolygonShape2D" id=15]
points = PoolVector2Array( 32, 128, -32, 96, -32, 72, 32, 104 )

[sub_resource type="ConvexPolygonShape2D" id=16]
points = PoolVector2Array( 32, 96, -32, 128, -32, 104, 32, 72 )

[sub_resource type="ConvexPolygonShape2D" id=17]
points = PoolVector2Array( 32, 128, -32, 96, -32, 72, 32, 104 )

[sub_resource type="ConvexPolygonShape2D" id=18]
points = PoolVector2Array( 32, 96, -32, 128, -32, 104, 32, 72 )

[sub_resource type="ConvexPolygonShape2D" id=19]
points = PoolVector2Array( 32, 128, -32, 96, -32, 72, 32, 104 )

[sub_resource type="ConvexPolygonShape2D" id=20]
points = PoolVector2Array( 32, 96, -32, 128, -32, 104, 32, 72 )

[sub_resource type="ConvexPolygonShape2D" id=21]
points = PoolVector2Array( 32, 128, -32, 96, -32, 72, 32, 104 )

[sub_resource type="ConvexPolygonShape2D" id=22]
points = PoolVector2Array( 32, 96, -32, 128, -32, 104, 32, 72 )

[sub_resource type="ConvexPolygonShape2D" id=23]
points = PoolVector2Array( 32, 128, -32, 96, -32, 72, 32, 104 )

[sub_resource type="ConvexPolygonShape2D" id=24]
points = PoolVector2Array( 32, 128, -32, 96, -32, 72, 32, 104 )

[sub_resource type="ConvexPolygonShape2D" id=25]
points = PoolVector2Array( 32, 96, -32, 128, -32, 104, 32, 72 )

[sub_resource type="ConvexPolygonShape2D" id=26]
points = PoolVector2Array( 32, 128, -32, 96, -32, 72, 32, 104 )

[sub_resource type="ConvexPolygonShape2D" id=27]
points = PoolVector2Array( 32, 96, -32, 128, -32, 104, 32, 72 )

[sub_resource type="ConvexPolygonShape2D" id=28]
points = PoolVector2Array( 32, 128, -32, 96, -32, 72, 32, 104 )

[sub_resource type="ConvexPolygonShape2D" id=29]
points = PoolVector2Array( 32, 96, -32, 128, -32, 104, 32, 72 )

[sub_resource type="ConvexPolygonShape2D" id=30]
points = PoolVector2Array( 32, 128, -32, 96, -32, 72, 32, 104 )

[sub_resource type="ConvexPolygonShape2D" id=31]
points = PoolVector2Array( 32, 96, -32, 128, -32, 104, 32, 72 )

[sub_resource type="ConvexPolygonShape2D" id=32]
points = PoolVector2Array( 32, 128, -32, 96, -32, 72, 32, 104 )

[sub_resource type="ConvexPolygonShape2D" id=33]
points = PoolVector2Array( 32, 96, -32, 128, -32, 104, 32, 72 )

[sub_resource type="ConvexPolygonShape2D" id=34]
points = PoolVector2Array( 32, 128, -32, 96, -32, 72, 32, 104 )

[sub_resource type="ConvexPolygonShape2D" id=35]
points = PoolVector2Array( 32, 96, -32, 128, -32, 104, 32, 72 )

[sub_resource type="ConvexPolygonShape2D" id=36]
points = PoolVector2Array( 32, 128, -32, 96, -32, 72, 32, 104 )

[sub_resource type="ConvexPolygonShape2D" id=37]
points = PoolVector2Array( 32, 96, -32, 128, -32, 104, 32, 72 )

[sub_resource type="ConvexPolygonShape2D" id=38]
points = PoolVector2Array( 32, 128, -32, 96, -32, 72, 32, 104 )

[resource]
0/name = "Adulte_mur_1"
0/texture = ExtResource( 17 )
0/tex_offset = Vector2( 64, -192 )
0/modulate = Color( 1, 1, 1, 1 )
0/region = Rect2( 0, 0, 64, 256 )
0/tile_mode = 0
0/occluder_offset = Vector2( 32, 128 )
0/navigation_offset = Vector2( 32, 128 )
0/shape_offset = Vector2( 64, -160 )
0/shape_transform = Transform2D( 1, 0, 0, 1, 64, -160 )
0/shape = SubResource( 1 )
0/shape_one_way = false
0/shape_one_way_margin = 1.0
0/shapes = [ {
"autotile_coord": Vector2( 0, 0 ),
"one_way": false,
"one_way_margin": 1.0,
"shape": SubResource( 1 ),
"shape_transform": Transform2D( 1, 0, 0, 1, 64, -160 )
} ]
0/z_index = 0
1/name = "Adulte_mur_1_flip"
1/texture = ExtResource( 20 )
1/tex_offset = Vector2( 0, -192 )
1/modulate = Color( 1, 1, 1, 1 )
1/region = Rect2( 0, 0, 64, 256 )
1/tile_mode = 0
1/occluder_offset = Vector2( 32, 128 )
1/navigation_offset = Vector2( 32, 128 )
1/shape_offset = Vector2( 32, -64 )
1/shape_transform = Transform2D( 1, 0, 0, 1, 32, -64 )
1/shape = SubResource( 2 )
1/shape_one_way = false
1/shape_one_way_margin = 1.0
1/shapes = [ {
"autotile_coord": Vector2( 0, 0 ),
"one_way": false,
"one_way_margin": 1.0,
"shape": SubResource( 2 ),
"shape_transform": Transform2D( 1, 0, 0, 1, 32, -64 )
} ]
1/z_index = 0
2/name = "Adulte_mur_2"
2/texture = ExtResource( 14 )
2/tex_offset = Vector2( 64, -192 )
2/modulate = Color( 1, 1, 1, 1 )
2/region = Rect2( 0, 0, 64, 256 )
2/tile_mode = 0
2/occluder_offset = Vector2( 32, 128 )
2/navigation_offset = Vector2( 32, 128 )
2/shape_offset = Vector2( 96, -64 )
2/shape_transform = Transform2D( 1, 0, 0, 1, 96, -64 )
2/shape = SubResource( 13 )
2/shape_one_way = false
2/shape_one_way_margin = 1.0
2/shapes = [ {
"autotile_coord": Vector2( 0, 0 ),
"one_way": false,
"one_way_margin": 1.0,
"shape": SubResource( 13 ),
"shape_transform": Transform2D( 1, 0, 0, 1, 96, -64 )
} ]
2/z_index = 0
3/name = "Adulte_mur_2_flip"
3/texture = ExtResource( 21 )
3/tex_offset = Vector2( 0, -192 )
3/modulate = Color( 1, 1, 1, 1 )
3/region = Rect2( 0, 0, 64, 256 )
3/tile_mode = 0
3/occluder_offset = Vector2( 32, 128 )
3/navigation_offset = Vector2( 32, 128 )
3/shape_offset = Vector2( 32, -64 )
3/shape_transform = Transform2D( 1, 0, 0, 1, 32, -64 )
3/shape = SubResource( 24 )
3/shape_one_way = false
3/shape_one_way_margin = 1.0
3/shapes = [ {
"autotile_coord": Vector2( 0, 0 ),
"one_way": false,
"one_way_margin": 1.0,
"shape": SubResource( 24 ),
"shape_transform": Transform2D( 1, 0, 0, 1, 32, -64 )
} ]
3/z_index = 0
4/name = "Enfant_mur_1"
4/texture = ExtResource( 18 )
4/tex_offset = Vector2( 64, -192 )
4/modulate = Color( 1, 1, 1, 1 )
4/region = Rect2( 0, 0, 64, 256 )
4/tile_mode = 0
4/occluder_offset = Vector2( 32, 128 )
4/navigation_offset = Vector2( 32, 128 )
4/shape_offset = Vector2( 96, -64 )
4/shape_transform = Transform2D( 1, 0, 0, 1, 96, -64 )
4/shape = SubResource( 33 )
4/shape_one_way = false
4/shape_one_way_margin = 1.0
4/shapes = [ {
"autotile_coord": Vector2( 0, 0 ),
"one_way": false,
"one_way_margin": 1.0,
"shape": SubResource( 33 ),
"shape_transform": Transform2D( 1, 0, 0, 1, 96, -64 )
} ]
4/z_index = 0
5/name = "Enfant_mur_1_flip"
5/texture = ExtResource( 19 )
5/tex_offset = Vector2( 0, -192 )
5/modulate = Color( 1, 1, 1, 1 )
5/region = Rect2( 0, 0, 64, 256 )
5/tile_mode = 0
5/occluder_offset = Vector2( 32, 128 )
5/navigation_offset = Vector2( 32, 128 )
5/shape_offset = Vector2( 32, -64 )
5/shape_transform = Transform2D( 1, 0, 0, 1, 32, -64 )
5/shape = SubResource( 34 )
5/shape_one_way = false
5/shape_one_way_margin = 1.0
5/shapes = [ {
"autotile_coord": Vector2( 0, 0 ),
"one_way": false,
"one_way_margin": 1.0,
"shape": SubResource( 34 ),
"shape_transform": Transform2D( 1, 0, 0, 1, 32, -64 )
} ]
5/z_index = 0
6/name = "Enfant_mur_2"
6/texture = ExtResource( 15 )
6/tex_offset = Vector2( 64, -192 )
6/modulate = Color( 1, 1, 1, 1 )
6/region = Rect2( 0, 0, 64, 256 )
6/tile_mode = 0
6/occluder_offset = Vector2( 32, 128 )
6/navigation_offset = Vector2( 32, 128 )
6/shape_offset = Vector2( 96, -64 )
6/shape_transform = Transform2D( 1, 0, 0, 1, 96, -64 )
6/shape = SubResource( 35 )
6/shape_one_way = false
6/shape_one_way_margin = 1.0
6/shapes = [ {
"autotile_coord": Vector2( 0, 0 ),
"one_way": false,
"one_way_margin": 1.0,
"shape": SubResource( 35 ),
"shape_transform": Transform2D( 1, 0, 0, 1, 96, -64 )
} ]
6/z_index = 0
7/name = "Enfant_mur_2_flip"
7/texture = ExtResource( 16 )
7/tex_offset = Vector2( 0, -192 )
7/modulate = Color( 1, 1, 1, 1 )
7/region = Rect2( 0, 0, 64, 256 )
7/tile_mode = 0
7/occluder_offset = Vector2( 32, 128 )
7/navigation_offset = Vector2( 32, 128 )
7/shape_offset = Vector2( 32, -64 )
7/shape_transform = Transform2D( 1, 0, 0, 1, 32, -64 )
7/shape = SubResource( 36 )
7/shape_one_way = false
7/shape_one_way_margin = 1.0
7/shapes = [ {
"autotile_coord": Vector2( 0, 0 ),
"one_way": false,
"one_way_margin": 1.0,
"shape": SubResource( 36 ),
"shape_transform": Transform2D( 1, 0, 0, 1, 32, -64 )
} ]
7/z_index = 0
8/name = "Com_mur_ch"
8/texture = ExtResource( 22 )
8/tex_offset = Vector2( 64, -192 )
8/modulate = Color( 1, 1, 1, 1 )
8/region = Rect2( 0, 0, 64, 256 )
8/tile_mode = 0
8/occluder_offset = Vector2( 32, 128 )
8/navigation_offset = Vector2( 32, 128 )
8/shape_offset = Vector2( 96, -64 )
8/shape_transform = Transform2D( 1, 0, 0, 1, 96, -64 )
8/shape = SubResource( 37 )
8/shape_one_way = false
8/shape_one_way_margin = 1.0
8/shapes = [ {
"autotile_coord": Vector2( 0, 0 ),
"one_way": false,
"one_way_margin": 1.0,
"shape": SubResource( 37 ),
"shape_transform": Transform2D( 1, 0, 0, 1, 96, -64 )
} ]
8/z_index = 0
9/name = "Com_mur_ch_flip"
9/texture = ExtResource( 23 )
9/tex_offset = Vector2( 0, -192 )
9/modulate = Color( 1, 1, 1, 1 )
9/region = Rect2( 0, 0, 64, 256 )
9/tile_mode = 0
9/occluder_offset = Vector2( 32, 128 )
9/navigation_offset = Vector2( 32, 128 )
9/shape_offset = Vector2( 32, -64 )
9/shape_transform = Transform2D( 1, 0, 0, 1, 32, -64 )
9/shape = SubResource( 38 )
9/shape_one_way = false
9/shape_one_way_margin = 1.0
9/shapes = [ {
"autotile_coord": Vector2( 0, 0 ),
"one_way": false,
"one_way_margin": 1.0,
"shape": SubResource( 38 ),
"shape_transform": Transform2D( 1, 0, 0, 1, 32, -64 )
} ]
9/z_index = 0
10/name = "Com_mur_fen_1"
10/texture = ExtResource( 24 )
10/tex_offset = Vector2( 64, -192 )
10/modulate = Color( 1, 1, 1, 1 )
10/region = Rect2( 0, 0, 64, 256 )
10/tile_mode = 0
10/occluder_offset = Vector2( 32, 128 )
10/navigation_offset = Vector2( 32, 128 )
10/shape_offset = Vector2( 96, -64 )
10/shape_transform = Transform2D( 1, 0, 0, 1, 96, -64 )
10/shape = SubResource( 3 )
10/shape_one_way = false
10/shape_one_way_margin = 1.0
10/shapes = [ {
"autotile_coord": Vector2( 0, 0 ),
"one_way": false,
"one_way_margin": 1.0,
"shape": SubResource( 3 ),
"shape_transform": Transform2D( 1, 0, 0, 1, 96, -64 )
} ]
10/z_index = 0
11/name = "Com_mur_fen_1_flip"
11/texture = ExtResource( 25 )
11/tex_offset = Vector2( 0, -192 )
11/modulate = Color( 1, 1, 1, 1 )
11/region = Rect2( 0, 0, 64, 256 )
11/tile_mode = 0
11/occluder_offset = Vector2( 32, 128 )
11/navigation_offset = Vector2( 32, 128 )
11/shape_offset = Vector2( 32, -64 )
11/shape_transform = Transform2D( 1, 0, 0, 1, 32, -64 )
11/shape = SubResource( 4 )
11/shape_one_way = false
11/shape_one_way_margin = 1.0
11/shapes = [ {
"autotile_coord": Vector2( 0, 0 ),
"one_way": false,
"one_way_margin": 1.0,
"shape": SubResource( 4 ),
"shape_transform": Transform2D( 1, 0, 0, 1, 32, -64 )
} ]
11/z_index = 0
12/name = "Com_mur_fen_2"
12/texture = ExtResource( 26 )
12/tex_offset = Vector2( 64, -192 )
12/modulate = Color( 1, 1, 1, 1 )
12/region = Rect2( 0, 0, 64, 256 )
12/tile_mode = 0
12/occluder_offset = Vector2( 32, 128 )
12/navigation_offset = Vector2( 32, 128 )
12/shape_offset = Vector2( 96, -64 )
12/shape_transform = Transform2D( 1, 0, 0, 1, 96, -64 )
12/shape = SubResource( 5 )
12/shape_one_way = false
12/shape_one_way_margin = 1.0
12/shapes = [ {
"autotile_coord": Vector2( 0, 0 ),
"one_way": false,
"one_way_margin": 1.0,
"shape": SubResource( 5 ),
"shape_transform": Transform2D( 1, 0, 0, 1, 96, -64 )
} ]
12/z_index = 0
13/name = "Com_mur_fen_2_flip"
13/texture = ExtResource( 27 )
13/tex_offset = Vector2( 0, -192 )
13/modulate = Color( 1, 1, 1, 1 )
13/region = Rect2( 0, 0, 64, 256 )
13/tile_mode = 0
13/occluder_offset = Vector2( 32, 128 )
13/navigation_offset = Vector2( 32, 128 )
13/shape_offset = Vector2( 32, -64 )
13/shape_transform = Transform2D( 1, 0, 0, 1, 32, -64 )
13/shape = SubResource( 6 )
13/shape_one_way = false
13/shape_one_way_margin = 1.0
13/shapes = [ {
"autotile_coord": Vector2( 0, 0 ),
"one_way": false,
"one_way_margin": 1.0,
"shape": SubResource( 6 ),
"shape_transform": Transform2D( 1, 0, 0, 1, 32, -64 )
} ]
13/z_index = 0
14/name = "Com_mur_fen_3"
14/texture = ExtResource( 28 )
14/tex_offset = Vector2( 64, -192 )
14/modulate = Color( 1, 1, 1, 1 )
14/region = Rect2( 0, 0, 64, 256 )
14/tile_mode = 0
14/occluder_offset = Vector2( 32, 128 )
14/navigation_offset = Vector2( 32, 128 )
14/shape_offset = Vector2( 96, -64 )
14/shape_transform = Transform2D( 1, 0, 0, 1, 96, -64 )
14/shape = SubResource( 7 )
14/shape_one_way = false
14/shape_one_way_margin = 1.0
14/shapes = [ {
"autotile_coord": Vector2( 0, 0 ),
"one_way": false,
"one_way_margin": 1.0,
"shape": SubResource( 7 ),
"shape_transform": Transform2D( 1, 0, 0, 1, 96, -64 )
} ]
14/z_index = 0
15/name = "Com_mur_fen_3_flip"
15/texture = ExtResource( 29 )
15/tex_offset = Vector2( 0, -192 )
15/modulate = Color( 1, 1, 1, 1 )
15/region = Rect2( 0, 0, 64, 256 )
15/tile_mode = 0
15/occluder_offset = Vector2( 32, 128 )
15/navigation_offset = Vector2( 32, 128 )
15/shape_offset = Vector2( 32, -64 )
15/shape_transform = Transform2D( 1, 0, 0, 1, 32, -64 )
15/shape = SubResource( 8 )
15/shape_one_way = false
15/shape_one_way_margin = 1.0
15/shapes = [ {
"autotile_coord": Vector2( 0, 0 ),
"one_way": false,
"one_way_margin": 1.0,
"shape": SubResource( 8 ),
"shape_transform": Transform2D( 1, 0, 0, 1, 32, -64 )
} ]
15/z_index = 0
16/name = "Com_mur_sacu_1"
16/texture = ExtResource( 30 )
16/tex_offset = Vector2( 64, -192 )
16/modulate = Color( 1, 1, 1, 1 )
16/region = Rect2( 0, 0, 64, 256 )
16/tile_mode = 0
16/occluder_offset = Vector2( 32, 128 )
16/navigation_offset = Vector2( 32, 128 )
16/shape_offset = Vector2( 96, -64 )
16/shape_transform = Transform2D( 1, 0, 0, 1, 96, -64 )
16/shape = SubResource( 9 )
16/shape_one_way = false
16/shape_one_way_margin = 1.0
16/shapes = [ {
"autotile_coord": Vector2( 0, 0 ),
"one_way": false,
"one_way_margin": 1.0,
"shape": SubResource( 9 ),
"shape_transform": Transform2D( 1, 0, 0, 1, 96, -64 )
} ]
16/z_index = 0
17/name = "Com_mur_sacu_1_flip"
17/texture = ExtResource( 34 )
17/tex_offset = Vector2( 0, -192 )
17/modulate = Color( 1, 1, 1, 1 )
17/region = Rect2( 0, 0, 64, 256 )
17/tile_mode = 0
17/occluder_offset = Vector2( 32, 128 )
17/navigation_offset = Vector2( 32, 128 )
17/shape_offset = Vector2( 32, -64 )
17/shape_transform = Transform2D( 1, 0, 0, 1, 32, -64 )
17/shape = SubResource( 10 )
17/shape_one_way = false
17/shape_one_way_margin = 1.0
17/shapes = [ {
"autotile_coord": Vector2( 0, 0 ),
"one_way": false,
"one_way_margin": 1.0,
"shape": SubResource( 10 ),
"shape_transform": Transform2D( 1, 0, 0, 1, 32, -64 )
} ]
17/z_index = 0
18/name = "Com_mur_sacu_2"
18/texture = ExtResource( 35 )
18/tex_offset = Vector2( 64, -192 )
18/modulate = Color( 1, 1, 1, 1 )
18/region = Rect2( 0, 0, 64, 256 )
18/tile_mode = 0
18/occluder_offset = Vector2( 32, 128 )
18/navigation_offset = Vector2( 32, 128 )
18/shape_offset = Vector2( 96, -64 )
18/shape_transform = Transform2D( 1, 0, 0, 1, 96, -64 )
18/shape = SubResource( 11 )
18/shape_one_way = false
18/shape_one_way_margin = 1.0
18/shapes = [ {
"autotile_coord": Vector2( 0, 0 ),
"one_way": false,
"one_way_margin": 1.0,
"shape": SubResource( 11 ),
"shape_transform": Transform2D( 1, 0, 0, 1, 96, -64 )
} ]
18/z_index = 0
19/name = "Com_mur_sacu_2_flip"
19/texture = ExtResource( 32 )
19/tex_offset = Vector2( 0, -192 )
19/modulate = Color( 1, 1, 1, 1 )
19/region = Rect2( 0, 0, 64, 256 )
19/tile_mode = 0
19/occluder_offset = Vector2( 32, 128 )
19/navigation_offset = Vector2( 32, 128 )
19/shape_offset = Vector2( 32, -64 )
19/shape_transform = Transform2D( 1, 0, 0, 1, 32, -64 )
19/shape = SubResource( 12 )
19/shape_one_way = false
19/shape_one_way_margin = 1.0
19/shapes = [ {
"autotile_coord": Vector2( 0, 0 ),
"one_way": false,
"one_way_margin": 1.0,
"shape": SubResource( 12 ),
"shape_transform": Transform2D( 1, 0, 0, 1, 32, -64 )
} ]
19/z_index = 0
20/name = "Com_mur_sacu_3"
20/texture = ExtResource( 36 )
20/tex_offset = Vector2( 64, -192 )
20/modulate = Color( 1, 1, 1, 1 )
20/region = Rect2( 0, 0, 64, 256 )
20/tile_mode = 0
20/occluder_offset = Vector2( 32, 128 )
20/navigation_offset = Vector2( 32, 128 )
20/shape_offset = Vector2( 96, -64 )
20/shape_transform = Transform2D( 1, 0, 0, 1, 96, -64 )
20/shape = SubResource( 14 )
20/shape_one_way = false
20/shape_one_way_margin = 1.0
20/shapes = [ {
"autotile_coord": Vector2( 0, 0 ),
"one_way": false,
"one_way_margin": 1.0,
"shape": SubResource( 14 ),
"shape_transform": Transform2D( 1, 0, 0, 1, 96, -64 )
} ]
20/z_index = 0
21/name = "Com_mur_sacu_3_flip"
21/texture = ExtResource( 31 )
21/tex_offset = Vector2( 0, -192 )
21/modulate = Color( 1, 1, 1, 1 )
21/region = Rect2( 0, 0, 64, 256 )
21/tile_mode = 0
21/occluder_offset = Vector2( 32, 128 )
21/navigation_offset = Vector2( 32, 128 )
21/shape_offset = Vector2( 32, -64 )
21/shape_transform = Transform2D( 1, 0, 0, 1, 32, -64 )
21/shape = SubResource( 15 )
21/shape_one_way = false
21/shape_one_way_margin = 1.0
21/shapes = [ {
"autotile_coord": Vector2( 0, 0 ),
"one_way": false,
"one_way_margin": 1.0,
"shape": SubResource( 15 ),
"shape_transform": Transform2D( 1, 0, 0, 1, 32, -64 )
} ]
21/z_index = 0
22/name = "Com_mur_sacu_4"
22/texture = ExtResource( 33 )
22/tex_offset = Vector2( 64, -192 )
22/modulate = Color( 1, 1, 1, 1 )
22/region = Rect2( 0, 0, 64, 256 )
22/tile_mode = 0
22/occluder_offset = Vector2( 32, 128 )
22/navigation_offset = Vector2( 32, 128 )
22/shape_offset = Vector2( 96, -64 )
22/shape_transform = Transform2D( 1, 0, 0, 1, 96, -64 )
22/shape = SubResource( 16 )
22/shape_one_way = false
22/shape_one_way_margin = 1.0
22/shapes = [ {
"autotile_coord": Vector2( 0, 0 ),
"one_way": false,
"one_way_margin": 1.0,
"shape": SubResource( 16 ),
"shape_transform": Transform2D( 1, 0, 0, 1, 96, -64 )
} ]
22/z_index = 0
23/name = "Com_mur_sacu_4_flip"
23/texture = ExtResource( 9 )
23/tex_offset = Vector2( 0, -192 )
23/modulate = Color( 1, 1, 1, 1 )
23/region = Rect2( 0, 0, 64, 256 )
23/tile_mode = 0
23/occluder_offset = Vector2( 32, 128 )
23/navigation_offset = Vector2( 32, 128 )
23/shape_offset = Vector2( 32, -64 )
23/shape_transform = Transform2D( 1, 0, 0, 1, 32, -64 )
23/shape = SubResource( 17 )
23/shape_one_way = false
23/shape_one_way_margin = 1.0
23/shapes = [ {
"autotile_coord": Vector2( 0, 0 ),
"one_way": false,
"one_way_margin": 1.0,
"shape": SubResource( 17 ),
"shape_transform": Transform2D( 1, 0, 0, 1, 32, -64 )
} ]
23/z_index = 0
24/name = "Com_mur_sacu_5"
24/texture = ExtResource( 10 )
24/tex_offset = Vector2( 64, -192 )
24/modulate = Color( 1, 1, 1, 1 )
24/region = Rect2( 0, 0, 64, 256 )
24/tile_mode = 0
24/occluder_offset = Vector2( 32, 128 )
24/navigation_offset = Vector2( 32, 128 )
24/shape_offset = Vector2( 96, -64 )
24/shape_transform = Transform2D( 1, 0, 0, 1, 96, -64 )
24/shape = SubResource( 18 )
24/shape_one_way = false
24/shape_one_way_margin = 1.0
24/shapes = [ {
"autotile_coord": Vector2( 0, 0 ),
"one_way": false,
"one_way_margin": 1.0,
"shape": SubResource( 18 ),
"shape_transform": Transform2D( 1, 0, 0, 1, 96, -64 )
} ]
24/z_index = 0
25/name = "Com_mur_sacu_5_flip"
25/texture = ExtResource( 6 )
25/tex_offset = Vector2( 0, -192 )
25/modulate = Color( 1, 1, 1, 1 )
25/region = Rect2( 0, 0, 64, 256 )
25/tile_mode = 0
25/occluder_offset = Vector2( 32, 128 )
25/navigation_offset = Vector2( 32, 128 )
25/shape_offset = Vector2( 32, -64 )
25/shape_transform = Transform2D( 1, 0, 0, 1, 32, -64 )
25/shape = SubResource( 19 )
25/shape_one_way = false
25/shape_one_way_margin = 1.0
25/shapes = [ {
"autotile_coord": Vector2( 0, 0 ),
"one_way": false,
"one_way_margin": 1.0,
"shape": SubResource( 19 ),
"shape_transform": Transform2D( 1, 0, 0, 1, 32, -64 )
} ]
25/z_index = 0
26/name = "Com_mur_sacu_6"
26/texture = ExtResource( 7 )
26/tex_offset = Vector2( 64, -192 )
26/modulate = Color( 1, 1, 1, 1 )
26/region = Rect2( 0, 0, 64, 256 )
26/tile_mode = 0
26/occluder_offset = Vector2( 32, 128 )
26/navigation_offset = Vector2( 32, 128 )
26/shape_offset = Vector2( 96, -64 )
26/shape_transform = Transform2D( 1, 0, 0, 1, 96, -64 )
26/shape = SubResource( 20 )
26/shape_one_way = false
26/shape_one_way_margin = 1.0
26/shapes = [ {
"autotile_coord": Vector2( 0, 0 ),
"one_way": false,
"one_way_margin": 1.0,
"shape": SubResource( 20 ),
"shape_transform": Transform2D( 1, 0, 0, 1, 96, -64 )
} ]
26/z_index = 0
27/name = "Com_mur_sacu_6_flip"
27/texture = ExtResource( 11 )
27/tex_offset = Vector2( 0, -192 )
27/modulate = Color( 1, 1, 1, 1 )
27/region = Rect2( 0, 0, 64, 256 )
27/tile_mode = 0
27/occluder_offset = Vector2( 32, 128 )
27/navigation_offset = Vector2( 32, 128 )
27/shape_offset = Vector2( 32, -64 )
27/shape_transform = Transform2D( 1, 0, 0, 1, 32, -64 )
27/shape = SubResource( 21 )
27/shape_one_way = false
27/shape_one_way_margin = 1.0
27/shapes = [ {
"autotile_coord": Vector2( 0, 0 ),
"one_way": false,
"one_way_margin": 1.0,
"shape": SubResource( 21 ),
"shape_transform": Transform2D( 1, 0, 0, 1, 32, -64 )
} ]
27/z_index = 0
28/name = "Com_mur_sacu_7"
28/texture = ExtResource( 8 )
28/tex_offset = Vector2( 64, -192 )
28/modulate = Color( 1, 1, 1, 1 )
28/region = Rect2( 0, 0, 64, 256 )
28/tile_mode = 0
28/occluder_offset = Vector2( 32, 128 )
28/navigation_offset = Vector2( 32, 128 )
28/shape_offset = Vector2( 96, -64 )
28/shape_transform = Transform2D( 1, 0, 0, 1, 96, -64 )
28/shape = SubResource( 22 )
28/shape_one_way = false
28/shape_one_way_margin = 1.0
28/shapes = [ {
"autotile_coord": Vector2( 0, 0 ),
"one_way": false,
"one_way_margin": 1.0,
"shape": SubResource( 22 ),
"shape_transform": Transform2D( 1, 0, 0, 1, 96, -64 )
} ]
28/z_index = 0
29/name = "Com_mur_sacu_7_flip"
29/texture = ExtResource( 12 )
29/tex_offset = Vector2( 0, -192 )
29/modulate = Color( 1, 1, 1, 1 )
29/region = Rect2( 0, 0, 64, 256 )
29/tile_mode = 0
29/occluder_offset = Vector2( 32, 128 )
29/navigation_offset = Vector2( 32, 128 )
29/shape_offset = Vector2( 32, -64 )
29/shape_transform = Transform2D( 1, 0, 0, 1, 32, -64 )
29/shape = SubResource( 23 )
29/shape_one_way = false
29/shape_one_way_margin = 1.0
29/shapes = [ {
"autotile_coord": Vector2( 0, 0 ),
"one_way": false,
"one_way_margin": 1.0,
"shape": SubResource( 23 ),
"shape_transform": Transform2D( 1, 0, 0, 1, 32, -64 )
} ]
29/z_index = 0
30/name = "SWC_mur_sdb_1"
30/texture = ExtResource( 13 )
30/tex_offset = Vector2( 64, -192 )
30/modulate = Color( 1, 1, 1, 1 )
30/region = Rect2( 0, 0, 64, 256 )
30/tile_mode = 0
30/occluder_offset = Vector2( 32, 128 )
30/navigation_offset = Vector2( 32, 128 )
30/shape_offset = Vector2( 96, -64 )
30/shape_transform = Transform2D( 1, 0, 0, 1, 96, -64 )
30/shape = SubResource( 25 )
30/shape_one_way = false
30/shape_one_way_margin = 1.0
30/shapes = [ {
"autotile_coord": Vector2( 0, 0 ),
"one_way": false,
"one_way_margin": 1.0,
"shape": SubResource( 25 ),
"shape_transform": Transform2D( 1, 0, 0, 1, 96, -64 )
} ]
30/z_index = 0
31/name = "SWC_mur_sdb_1_flip"
31/texture = ExtResource( 38 )
31/tex_offset = Vector2( 0, -192 )
31/modulate = Color( 1, 1, 1, 1 )
31/region = Rect2( 0, 0, 64, 256 )
31/tile_mode = 0
31/occluder_offset = Vector2( 32, 128 )
31/navigation_offset = Vector2( 32, 128 )
31/shape_offset = Vector2( 32, -64 )
31/shape_transform = Transform2D( 1, 0, 0, 1, 32, -64 )
31/shape = SubResource( 26 )
31/shape_one_way = false
31/shape_one_way_margin = 1.0
31/shapes = [ {
"autotile_coord": Vector2( 0, 0 ),
"one_way": false,
"one_way_margin": 1.0,
"shape": SubResource( 26 ),
"shape_transform": Transform2D( 1, 0, 0, 1, 32, -64 )
} ]
31/z_index = 0
32/name = "SWC_mur_sdb_2"
32/texture = ExtResource( 4 )
32/tex_offset = Vector2( 64, -192 )
32/modulate = Color( 1, 1, 1, 1 )
32/region = Rect2( 0, 0, 64, 256 )
32/tile_mode = 0
32/occluder_offset = Vector2( 32, 128 )
32/navigation_offset = Vector2( 32, 128 )
32/shape_offset = Vector2( 96, -64 )
32/shape_transform = Transform2D( 1, 0, 0, 1, 96, -64 )
32/shape = SubResource( 27 )
32/shape_one_way = false
32/shape_one_way_margin = 1.0
32/shapes = [ {
"autotile_coord": Vector2( 0, 0 ),
"one_way": false,
"one_way_margin": 1.0,
"shape": SubResource( 27 ),
"shape_transform": Transform2D( 1, 0, 0, 1, 96, -64 )
} ]
32/z_index = 0
33/name = "SWC_mur_sdb_2_flip"
33/texture = ExtResource( 2 )
33/tex_offset = Vector2( 0, -192 )
33/modulate = Color( 1, 1, 1, 1 )
33/region = Rect2( 0, 0, 64, 256 )
33/tile_mode = 0
33/occluder_offset = Vector2( 32, 128 )
33/navigation_offset = Vector2( 32, 128 )
33/shape_offset = Vector2( 32, -64 )
33/shape_transform = Transform2D( 1, 0, 0, 1, 32, -64 )
33/shape = SubResource( 28 )
33/shape_one_way = false
33/shape_one_way_margin = 1.0
33/shapes = [ {
"autotile_coord": Vector2( 0, 0 ),
"one_way": false,
"one_way_margin": 1.0,
"shape": SubResource( 28 ),
"shape_transform": Transform2D( 1, 0, 0, 1, 32, -64 )
} ]
33/z_index = 0
34/name = "SWC_mur_wc_1"
34/texture = ExtResource( 1 )
34/tex_offset = Vector2( 64, -192 )
34/modulate = Color( 1, 1, 1, 1 )
34/region = Rect2( 0, 0, 64, 256 )
34/tile_mode = 0
34/occluder_offset = Vector2( 32, 128 )
34/navigation_offset = Vector2( 32, 128 )
34/shape_offset = Vector2( 96, -64 )
34/shape_transform = Transform2D( 1, 0, 0, 1, 96, -64 )
34/shape = SubResource( 29 )
34/shape_one_way = false
34/shape_one_way_margin = 1.0
34/shapes = [ {
"autotile_coord": Vector2( 0, 0 ),
"one_way": false,
"one_way_margin": 1.0,
"shape": SubResource( 29 ),
"shape_transform": Transform2D( 1, 0, 0, 1, 96, -64 )
} ]
34/z_index = 0
35/name = "SWC_mur_wc_1_flip"
35/texture = ExtResource( 3 )
35/tex_offset = Vector2( 0, -192 )
35/modulate = Color( 1, 1, 1, 1 )
35/region = Rect2( 0, 0, 64, 256 )
35/tile_mode = 0
35/occluder_offset = Vector2( 32, 128 )
35/navigation_offset = Vector2( 32, 128 )
35/shape_offset = Vector2( 32, -64 )
35/shape_transform = Transform2D( 1, 0, 0, 1, 32, -64 )
35/shape = SubResource( 30 )
35/shape_one_way = false
35/shape_one_way_margin = 1.0
35/shapes = [ {
"autotile_coord": Vector2( 0, 0 ),
"one_way": false,
"one_way_margin": 1.0,
"shape": SubResource( 30 ),
"shape_transform": Transform2D( 1, 0, 0, 1, 32, -64 )
} ]
35/z_index = 0
36/name = "SWC_mur_wc_2"
36/texture = ExtResource( 5 )
36/tex_offset = Vector2( 64, -192 )
36/modulate = Color( 1, 1, 1, 1 )
36/region = Rect2( 0, 0, 64, 256 )
36/tile_mode = 0
36/occluder_offset = Vector2( 32, 128 )
36/navigation_offset = Vector2( 32, 128 )
36/shape_offset = Vector2( 96, -64 )
36/shape_transform = Transform2D( 1, 0, 0, 1, 96, -64 )
36/shape = SubResource( 31 )
36/shape_one_way = false
36/shape_one_way_margin = 1.0
36/shapes = [ {
"autotile_coord": Vector2( 0, 0 ),
"one_way": false,
"one_way_margin": 1.0,
"shape": SubResource( 31 ),
"shape_transform": Transform2D( 1, 0, 0, 1, 96, -64 )
} ]
36/z_index = 0
37/name = "SWC_mur_wc_2_flip"
37/texture = ExtResource( 37 )
37/tex_offset = Vector2( 0, -192 )
37/modulate = Color( 1, 1, 1, 1 )
37/region = Rect2( 0, 0, 64, 256 )
37/tile_mode = 0
37/occluder_offset = Vector2( 32, 128 )
37/navigation_offset = Vector2( 32, 128 )
37/shape_offset = Vector2( 32, -64 )
37/shape_transform = Transform2D( 1, 0, 0, 1, 32, -64 )
37/shape = SubResource( 32 )
37/shape_one_way = false
37/shape_one_way_margin = 1.0
37/shapes = [ {
"autotile_coord": Vector2( 0, 0 ),
"one_way": false,
"one_way_margin": 1.0,
"shape": SubResource( 32 ),
"shape_transform": Transform2D( 1, 0, 0, 1, 32, -64 )
} ]
37/z_index = 0
