[gd_scene load_steps=3 format=2]

[ext_resource path="res://Scenes/Actors/Decoration.tscn" type="PackedScene" id=1]
[ext_resource path="res://Graphics/Tasks/puddle1.png" type="Texture" id=2]

[node name="Puddle1_F_D" instance=ExtResource( 1 )]

[node name="Sprite" parent="." index="0"]
texture = ExtResource( 2 )
