[gd_scene load_steps=3 format=2]

[ext_resource path="res://Graphics/Tasks/obj_lavabo_sale.png" type="Texture" id=1]
[ext_resource path="res://Scenes/Actors/StaticObject.tscn" type="PackedScene" id=2]

[node name="SinkBR_F_D" instance=ExtResource( 2 )]

[node name="Sprite" parent="." index="0"]
texture = ExtResource( 1 )
offset = Vector2( 0, -32 )

[node name="CollisionPolygon2D" parent="." index="1"]
polygon = PoolVector2Array( 64, 8, 12, -28, -52, 12, 0, 48 )
