[gd_scene load_steps=2 format=2]

[ext_resource path="res://Scripts/actors/environment/Furniture.cs" type="Script" id=1]

[node name="Decoration" type="Node2D"]
script = ExtResource( 1 )
__meta__ = {
"_edit_group_": true
}
_SpritePath = NodePath("Sprite")
_REDUCED_ALPHA = 127.0

[node name="Sprite" type="Sprite" parent="."]
