[gd_resource type="Resource" load_steps=6 format=2]

[ext_resource path="res://Scripts/ARAttributes.cs" type="Script" id=1]

[sub_resource type="Curve" id=1]
_data = [ Vector2( 0, 0 ), 0.0, 3.5, 0, 0, Vector2( 1, 1 ), 0.12, 0.0, 0, 0 ]

[sub_resource type="CurveTexture" id=2]
curve = SubResource( 1 )

[sub_resource type="Curve" id=3]
_data = [ Vector2( 0, 1 ), 0.0, 0.0, 0, 0, Vector2( 1, 0 ), -3.0, 0.0, 0, 0 ]

[sub_resource type="CurveTexture" id=4]
curve = SubResource( 3 )

[resource]
script = ExtResource( 1 )
_ATTACK_THRESHOLD = 0.01
_AttackTime = 0.052
_Attack = SubResource( 2 )
_RELEASE_THRESHOLD = 0.4
_ReleaseTime = 0.052
_Release = SubResource( 4 )
