[gd_scene load_steps=4 format=2]

[ext_resource path="res://Scenes/Actors/WindowWall.tscn" type="PackedScene" id=1]
[ext_resource path="res://Graphics/Decor/Walls/enf_mur_1_flip_abaisse.png" type="Texture" id=2]
[ext_resource path="res://Graphics/Decor/Walls/enf_mur_1_flip_small.png" type="Texture" id=3]

[node name="WW_Kid_1_" instance=ExtResource( 1 )]
_LoweredSprite = ExtResource( 2 )

[node name="Sprite" parent="." index="0"]
texture = ExtResource( 3 )
