[gd_scene load_steps=5 format=2]

[ext_resource path="res://Scripts/ui/Intro.cs" type="Script" id=1]
[ext_resource path="res://Graphics/UI/Otterways_LOGO.png" type="Texture" id=10]
[ext_resource path="res://Resources/logoNuances_colorimetrie.ogv" type="VideoStream" id=11]

[sub_resource type="Animation" id=1]
resource_name = "logo_otterways"
length = 2.0
tracks/0/type = "value"
tracks/0/path = NodePath("LogoScreen/CenterContainer/TextureRect:modulate")
tracks/0/interp = 1
tracks/0/loop_wrap = true
tracks/0/imported = false
tracks/0/enabled = true
tracks/0/keys = {
"times": PoolRealArray( 0, 0.7, 1.25, 2 ),
"transitions": PoolRealArray( 1, 1, 1, 1 ),
"update": 0,
"values": [ Color( 1, 1, 1, 0 ), Color( 1, 1, 1, 1 ), Color( 1, 1, 1, 1 ), Color( 1, 1, 1, 0 ) ]
}
tracks/1/type = "value"
tracks/1/path = NodePath("LogoScreen:visible")
tracks/1/interp = 1
tracks/1/loop_wrap = true
tracks/1/imported = false
tracks/1/enabled = true
tracks/1/keys = {
"times": PoolRealArray( 0, 2 ),
"transitions": PoolRealArray( 1, 1 ),
"update": 1,
"values": [ true, false ]
}

[node name="Intro" type="Node"]
pause_mode = 2
script = ExtResource( 1 )
_AnimationPlayerPath = NodePath("AnimationPlayer")
_VideoPlayerPath = NodePath("VideoPlayer")

[node name="AnimationPlayer" type="AnimationPlayer" parent="."]
autoplay = "logo_otterways"
anims/logo_otterways = SubResource( 1 )

[node name="LogoScreen" type="ColorRect" parent="."]
anchor_right = 1.0
anchor_bottom = 1.0
color = Color( 0, 0, 0, 1 )
__meta__ = {
"_edit_use_anchors_": false
}

[node name="CenterContainer" type="CenterContainer" parent="LogoScreen"]
anchor_right = 1.0
anchor_bottom = 1.0

[node name="TextureRect" type="TextureRect" parent="LogoScreen/CenterContainer"]
modulate = Color( 1, 1, 1, 0 )
margin_left = 838.0
margin_top = 338.0
margin_right = 1082.0
margin_bottom = 742.0
texture = ExtResource( 10 )

[node name="VideoPlayer" type="VideoPlayer" parent="."]
visible = false
anchor_right = 1.0
anchor_bottom = 1.0
stream = ExtResource( 11 )
